…
air_summary
```

    ## # A tibble: 60 x 4
    ##    month      avg_pm2.5 lower upper
    ##    <date>         <dbl> <dbl> <dbl>
    ##  1 2010-01-01      90.4  83.2  97.7
    ##  2 2010-02-01      97.2  90.8 104. 
    ##  3 2010-03-01      94.1  87.9 100. 
    ##  4 2010-04-01      80.0  74.6  85.4
    ##  5 2010-05-01      86.9  82.6  91.2
    ##  6 2010-06-01     109.  105.  113. 
    ##  7 2010-07-01     124.  118.  129. 
    ##  8 2010-08-01      97.6  92.5 103. 
    ##  9 2010-09-01     123.  115.  130. 
    ## 10 2010-10-01     119.  110.  128. 
    ## # … with 50 more rows
…
